<svg xmlns="http://www.w3.org/2000/svg" xml:space="preserve" width="50px" height="50px" version="1.1" style="shape-rendering:geometricPrecision; text-rendering:geometricPrecision; image-rendering:optimizeQuality; fill-rule:evenodd; clip-rule:evenodd"
viewBox="0 0 50 50" xmlns:xlink="http://www.w3.org/1999/xlink">
  <path class="lines" d="M1 3c-1,0 -1,-1 0,-2 0,0 1,0 2,0l46 46c1,1 1,2 0,2 -1,1 -1,1 -2,0l-46 -46z" fill="#ffffff"/>
  <path class="lines" d="M3 49c-1,1 -2,1 -2,0 -1,0 -1,-1 0,-2l46 -46c1,0 1,0 2,0 1,1 1,2 0,2l-46 46z" fill="#ffffff"/>
</svg>
